{"items":[{"playerId":"f2ffd444-7993-48e9-a40f-8de59a36ed1a","firstName":"Narciso","lastName":"Crook","notes":"","teamId":"ea582d9f-8060-4115-8f6b-ab9e10206bec","teamName":"Charleston Dirty Birds","stats":{"SB":30,"CS":2,"PO":0,"POA":13,"RATES":{"SB_PCT":0.9375}}},{"playerId":"72f086ff-abf9-425a-a99d-17cde3a63fa5","firstName":"Jared","lastName":"Carr","notes":"","teamId":"adc0e571-ee3c-4381-a788-61608402285b","teamName":"Hagerstown Flying Boxcars","stats":{"SB":24,"CS":6,"PO":1,"POA":18,"RATES":{"SB_PCT":0.8}}},{"playerId":"a02d1e8a-3dde-4c91-98dc-b67b45b101b4","firstName":"Gary","lastName":"Mattis","notes":"","teamId":"5f287a09-a787-4f05-8dae-b3f23279ca74","teamName":"Staten Island Ferry Hawks","stats":{"SB":21,"CS":2,"PO":4,"POA":17,"RATES":{"SB_PCT":0.9130434782608695}}},{"playerId":"9363ba93-176a-435a-a7a0-d09e96e13ffb","firstName":"Jacob","lastName":"Robson","notes":"","teamId":"92cc9019-e388-4624-8e97-72aec9caba35","teamName":"Long Island Ducks","stats":{"SB":19,"CS":4,"PO":0,"POA":12,"RATES":{"SB_PCT":0.8260869565217391}}},{"playerId":"af418f31-f3e7-40a8-b3b6-f0e64aa5d1fb","firstName":"Chris","lastName":"Proctor","notes":"","teamId":"4f1038eb-7615-4b9e-ad59-9aebfa1c1bdb","teamName":"Gastonia Ghost Peppers","stats":{"SB":19,"CS":1,"PO":1,"POA":13,"RATES":{"SB_PCT":0.95}}},{"playerId":"a8e8f553-6a13-4959-bbed-09ed5db8bde8","firstName":"Stephen","lastName":"Paolini","notes":"","teamId":"65183c24-fde3-437e-9c9b-0ad1427911b3","teamName":"Southern Maryland Blue Crabs","stats":{"SB":18,"CS":3,"PO":0,"POA":11,"RATES":{"SB_PCT":0.8571428571428571}}},{"playerId":"a9a75b6a-3d34-49ad-83ba-19c136ba992d","firstName":"Cornelius ","lastName":"Randolph","notes":"","teamId":"ea582d9f-8060-4115-8f6b-ab9e10206bec","teamName":"Charleston Dirty Birds","stats":{"SB":17,"CS":0,"PO":0,"POA":11,"RATES":{"SB_PCT":1.0}}},{"playerId":"0a5387e4-3fba-4031-b1dd-f70915543c10","firstName":"Tomo","lastName":"Otosaka","notes":"https://lh3.googleusercontent.com/d/1DeQPDXD8p7XNwPf9j2wNcCd_OLN04wxe","teamId":"632e348f-8786-4058-9eb3-a658185138b9","teamName":"York Revolution","stats":{"SB":16,"CS":1,"PO":2,"POA":24,"RATES":{"SB_PCT":0.9411764705882353}}},{"playerId":"4189838d-57e4-4c7e-ba8b-d6367a24856a","firstName":"Tres","lastName":"Gonzales","notes":"","teamId":"26f43f84-58cd-4541-91b4-6c0ca0af7237","teamName":"Lexington Legends","stats":{"SB":15,"CS":5,"PO":2,"POA":5,"RATES":{"SB_PCT":0.75}}},{"playerId":"9b8ceafe-a58d-49dd-ba49-c17fe14714af","firstName":"Jack","lastName":"Reinheimer","notes":"","teamId":"4f1038eb-7615-4b9e-ad59-9aebfa1c1bdb","teamName":"Gastonia Ghost Peppers","stats":{"SB":15,"CS":0,"PO":0,"POA":14,"RATES":{"SB_PCT":1.0}}},{"playerId":"4ab20da3-37ed-4ac3-bc92-ffa6a1c64979","firstName":"Wilmer","lastName":"Difo","notes":"","teamId":"92cc9019-e388-4624-8e97-72aec9caba35","teamName":"Long Island Ducks","stats":{"SB":14,"CS":1,"PO":0,"POA":17,"RATES":{"SB_PCT":0.9333333333333333}}},{"playerId":"185cd90b-9a39-48f4-b1f0-7d9c6686df69","firstName":"Lamar","lastName":"Briggs","notes":"","teamId":"5f287a09-a787-4f05-8dae-b3f23279ca74","teamName":"Staten Island Ferry Hawks","stats":{"SB":13,"CS":4,"PO":3,"POA":14,"RATES":{"SB_PCT":0.7647058823529411}}},{"playerId":"583c1c41-eaf6-478d-bfe1-dd3e4121bf37","firstName":"Xane","lastName":"Washington","notes":"","teamId":"26f43f84-58cd-4541-91b4-6c0ca0af7237","teamName":"Lexington Legends","stats":{"SB":13,"CS":0,"PO":0,"POA":6,"RATES":{"SB_PCT":1.0}}},{"playerId":"72d95bbb-f62c-4dff-8fbd-6377ec475e5c","firstName":"D.J.","lastName":"Burt","notes":"","teamId":"97cfebe5-2a3f-482e-9afb-d03d8e06d3f8","teamName":"High Point Rockers","stats":{"SB":13,"CS":2,"PO":0,"POA":5,"RATES":{"SB_PCT":0.8666666666666667}}},{"playerId":"a47c8491-fee1-469a-8df3-ada2b6e8a5bd","firstName":"Jeffrey","lastName":"Wehler","notes":"","teamId":"adc0e571-ee3c-4381-a788-61608402285b","teamName":"Hagerstown Flying Boxcars","stats":{"SB":13,"CS":2,"PO":1,"POA":15,"RATES":{"SB_PCT":0.8666666666666667}}},{"playerId":"a5ae976d-c783-4c8f-8ac7-338b9e35b12f","firstName":"Jaylen","lastName":"Smith","notes":"","teamId":"ea582d9f-8060-4115-8f6b-ab9e10206bec","teamName":"Charleston Dirty Birds","stats":{"SB":13,"CS":5,"PO":0,"POA":15,"RATES":{"SB_PCT":0.7222222222222222}}},{"playerId":"43224081-f6ee-4124-8323-c53b82be092b","firstName":"Wendell","lastName":"Rijo","notes":"","teamId":"ea582d9f-8060-4115-8f6b-ab9e10206bec","teamName":"Charleston Dirty Birds","stats":{"SB":12,"CS":2,"PO":1,"POA":19,"RATES":{"SB_PCT":0.8571428571428571}}},{"playerId":"c6cd63dc-da16-46bf-8390-24215fe8a0d1","firstName":"Anthony","lastName":"Prato","notes":"","teamId":"4f1038eb-7615-4b9e-ad59-9aebfa1c1bdb","teamName":"Gastonia Ghost Peppers","stats":{"SB":12,"CS":2,"PO":0,"POA":18,"RATES":{"SB_PCT":0.8571428571428571}}},{"playerId":"ebab1a18-4a52-45c3-ac0f-557382f9c50b","firstName":"Nate","lastName":"Scantlin","notes":"","teamId":"4f1038eb-7615-4b9e-ad59-9aebfa1c1bdb","teamName":"Gastonia Ghost Peppers","stats":{"SB":12,"CS":2,"PO":0,"POA":5,"RATES":{"SB_PCT":0.8571428571428571}}},{"playerId":"1db21904-1c36-4cea-b8d4-fd0a09b0144e","firstName":"Danny","lastName":"Bautista Jr","notes":"","teamId":"65183c24-fde3-437e-9c9b-0ad1427911b3","teamName":"Southern Maryland Blue Crabs","stats":{"SB":11,"CS":2,"PO":0,"POA":18,"RATES":{"SB_PCT":0.8461538461538461}}},{"playerId":"29f81ffe-8ee5-48a2-a4b9-0797f35908f3","firstName":"Viandel","lastName":"Pena","notes":"","teamId":"65183c24-fde3-437e-9c9b-0ad1427911b3","teamName":"Southern Maryland Blue Crabs","stats":{"SB":11,"CS":4,"PO":0,"POA":6,"RATES":{"SB_PCT":0.7333333333333333}}},{"playerId":"512d22b8-2ec9-4b5f-9031-24032cc0dcc5","firstName":"Dylan","lastName":"Rock","notes":"","teamId":"26f43f84-58cd-4541-91b4-6c0ca0af7237","teamName":"Lexington Legends","stats":{"SB":11,"CS":1,"PO":1,"POA":9,"RATES":{"SB_PCT":0.9166666666666666}}},{"playerId":"9f9eceaa-9be9-41a0-aa99-ab4ac9372220","firstName":"Ben","lastName":"Blackwell","notes":"https://lh3.googleusercontent.com/d/12HxZTWRAHR55k0QSJInC7ZSsjCjUB_-9","teamId":"632e348f-8786-4058-9eb3-a658185138b9","teamName":"York Revolution","stats":{"SB":11,"CS":2,"PO":2,"POA":26,"RATES":{"SB_PCT":0.8461538461538461}}},{"playerId":"f3f0d2ad-ba87-4128-8375-01924f10893b","firstName":"Kole","lastName":"Kaler","notes":"","teamId":"92cc9019-e388-4624-8e97-72aec9caba35","teamName":"Long Island Ducks","stats":{"SB":11,"CS":3,"PO":0,"POA":17,"RATES":{"SB_PCT":0.7857142857142857}}},{"playerId":"537812f0-de4f-4551-8040-59fe392a19d7","firstName":"Brody","lastName":"Fahr","notes":"","teamId":"65183c24-fde3-437e-9c9b-0ad1427911b3","teamName":"Southern Maryland Blue Crabs","stats":{"SB":10,"CS":2,"PO":1,"POA":23,"RATES":{"SB_PCT":0.8333333333333334}}},{"playerId":"662e9041-2649-4c6e-a3b4-8065a7a5ff84","firstName":"Trendon","lastName":"Craig","notes":"","teamId":"4f1038eb-7615-4b9e-ad59-9aebfa1c1bdb","teamName":"Gastonia Ghost Peppers","stats":{"SB":10,"CS":2,"PO":0,"POA":6,"RATES":{"SB_PCT":0.8333333333333334}}},{"playerId":"9745d062-59ee-4012-a849-1a1b6484b327","firstName":"Alsander","lastName":"Womack","notes":"","teamId":"92cc9019-e388-4624-8e97-72aec9caba35","teamName":"Long Island Ducks","stats":{"SB":10,"CS":5,"PO":0,"POA":15,"RATES":{"SB_PCT":0.6666666666666666}}},{"playerId":"1108e3d9-2f07-46c5-95da-feac4d8b77e5","firstName":"Chris","lastName":"Roller","notes":"","teamId":"92cc9019-e388-4624-8e97-72aec9caba35","teamName":"Long Island Ducks","stats":{"SB":9,"CS":0,"PO":0,"POA":15,"RATES":{"SB_PCT":1.0}}},{"playerId":"22e95a62-649e-41d3-b7ab-162ea789ded0","firstName":"Gabe","lastName":"Howell","notes":"","teamId":"26f43f84-58cd-4541-91b4-6c0ca0af7237","teamName":"Lexington Legends","stats":{"SB":9,"CS":1,"PO":0,"POA":1,"RATES":{"SB_PCT":0.9}}},{"playerId":"453ec12f-8949-41b5-9793-6b280004234b","firstName":"Marcus","lastName":"Chiu","notes":"","teamId":"92cc9019-e388-4624-8e97-72aec9caba35","teamName":"Long Island Ducks","stats":{"SB":9,"CS":1,"PO":0,"POA":7,"RATES":{"SB_PCT":0.9}}},{"playerId":"73e66faf-bc9c-48b9-a147-5bae7bff81f0","firstName":"Andy","lastName":"Atwood","notes":"","teamId":"26f43f84-58cd-4541-91b4-6c0ca0af7237","teamName":"Lexington Legends","stats":{"SB":9,"CS":2,"PO":0,"POA":4,"RATES":{"SB_PCT":0.8181818181818182}}},{"playerId":"9f81368f-1e47-4ade-83f8-5e9eec37b451","firstName":"Ethan","lastName":"Wilson","notes":"","teamId":"65183c24-fde3-437e-9c9b-0ad1427911b3","teamName":"Southern Maryland Blue Crabs","stats":{"SB":9,"CS":3,"PO":0,"POA":11,"RATES":{"SB_PCT":0.75}}},{"playerId":"a4887685-1e85-4994-bb3b-dcba89295fb4","firstName":"Phillip","lastName":"Sikes","notes":"","teamId":"65183c24-fde3-437e-9c9b-0ad1427911b3","teamName":"Southern Maryland Blue Crabs","stats":{"SB":9,"CS":1,"PO":1,"POA":6,"RATES":{"SB_PCT":0.9}}},{"playerId":"fb2c5a78-e8fe-4881-947f-b1d6db9884af","firstName":"Tayler","lastName":"Aguilar","notes":"","teamId":"5f287a09-a787-4f05-8dae-b3f23279ca74","teamName":"Staten Island Ferry Hawks","stats":{"SB":9,"CS":1,"PO":0,"POA":7,"RATES":{"SB_PCT":0.9}}},{"playerId":"56751f96-26ca-4d62-90a3-4b4f1137dca5","firstName":"Ezequiel","lastName":"Pagan","notes":"","teamId":"65183c24-fde3-437e-9c9b-0ad1427911b3","teamName":"Southern Maryland Blue Crabs","stats":{"SB":8,"CS":0,"PO":3,"POA":9,"RATES":{"SB_PCT":1.0}}},{"playerId":"7f595e98-e5b1-40eb-b3fa-5eb396ceedfd","firstName":"Cristhian","lastName":"Rodriguez","notes":"","teamId":"adc0e571-ee3c-4381-a788-61608402285b","teamName":"Hagerstown Flying Boxcars","stats":{"SB":8,"CS":1,"PO":0,"POA":19,"RATES":{"SB_PCT":0.8888888888888888}}},{"playerId":"a5758588-af8c-4525-ae25-da3f083c56bb","firstName":"Alex","lastName":"Isola","notes":"","teamId":"adc0e571-ee3c-4381-a788-61608402285b","teamName":"Hagerstown Flying Boxcars","stats":{"SB":8,"CS":0,"PO":2,"POA":9,"RATES":{"SB_PCT":1.0}}},{"playerId":"a8c69000-36ec-415c-9982-53ec6651a939","firstName":"Justin","lastName":"Wylie","notes":"","teamId":"4f1038eb-7615-4b9e-ad59-9aebfa1c1bdb","teamName":"Gastonia Ghost Peppers","stats":{"SB":8,"CS":4,"PO":0,"POA":7,"RATES":{"SB_PCT":0.6666666666666666}}},{"playerId":"c71a0850-dbf5-4ba4-93d6-dc56870ee4bd","firstName":"Shawon","lastName":"Dunston Jr. ","notes":"","teamId":"ea582d9f-8060-4115-8f6b-ab9e10206bec","teamName":"Charleston Dirty Birds","stats":{"SB":8,"CS":0,"PO":1,"POA":9,"RATES":{"SB_PCT":1.0}}},{"playerId":"f930d82a-84ad-45ed-a1e4-49dba0c9500d","firstName":"Demetrius","lastName":"Moorer","notes":"","teamId":"ea582d9f-8060-4115-8f6b-ab9e10206bec","teamName":"Charleston Dirty Birds","stats":{"SB":8,"CS":1,"PO":1,"POA":7,"RATES":{"SB_PCT":0.8888888888888888}}},{"playerId":"036b1f5e-dfe7-4d33-b308-1a175d0186f5","firstName":"Jerry","lastName":"Huntzinger","notes":"","teamId":"26f43f84-58cd-4541-91b4-6c0ca0af7237","teamName":"Lexington Legends","stats":{"SB":7,"CS":0,"PO":1,"POA":2,"RATES":{"SB_PCT":1.0}}},{"playerId":"0f844d04-88d8-4c02-97ab-69846c23d16e","firstName":"Patrick","lastName":"Sanchez","notes":"","teamId":"97cfebe5-2a3f-482e-9afb-d03d8e06d3f8","teamName":"High Point Rockers","stats":{"SB":7,"CS":3,"PO":0,"POA":14,"RATES":{"SB_PCT":0.7}}},{"playerId":"403a7ea4-5810-41f6-82a6-e45fff7096da","firstName":"Aaron","lastName":"Takacs","notes":"","teamId":"92cc9019-e388-4624-8e97-72aec9caba35","teamName":"Long Island Ducks","stats":{"SB":7,"CS":1,"PO":0,"POA":3,"RATES":{"SB_PCT":0.875}}},{"playerId":"4b363694-45d0-4dfe-b7cf-94f227f33f41","firstName":"David","lastName":"Smith","notes":"","teamId":"f6320df7-de52-4639-aaf7-2e52529b68a2","teamName":"Lancaster Stormers","stats":{"SB":7,"CS":2,"PO":1,"POA":7,"RATES":{"SB_PCT":0.7777777777777778}}},{"playerId":"f026ab94-47df-43e4-a509-e714eab46a9d","firstName":"Tyler","lastName":"Williams","notes":"","teamId":"adc0e571-ee3c-4381-a788-61608402285b","teamName":"Hagerstown Flying Boxcars","stats":{"SB":7,"CS":1,"PO":0,"POA":2,"RATES":{"SB_PCT":0.875}}},{"playerId":"2c64b36f-2531-44bb-ae75-48dec4df1373","firstName":"Taylor","lastName":"Darden","notes":"","teamId":"65183c24-fde3-437e-9c9b-0ad1427911b3","teamName":"Southern Maryland Blue Crabs","stats":{"SB":6,"CS":0,"PO":2,"POA":16,"RATES":{"SB_PCT":1.0}}},{"playerId":"4072e2e9-6226-47d9-9cca-12c018fe209f","firstName":"Jhon","lastName":"Nunez","notes":"","teamId":"ea582d9f-8060-4115-8f6b-ab9e10206bec","teamName":"Charleston Dirty Birds","stats":{"SB":6,"CS":0,"PO":1,"POA":9,"RATES":{"SB_PCT":1.0}}},{"playerId":"e40c3bd9-78d4-4d3a-b1e3-bad2cbc7fca4","firstName":"Scott","lastName":"Kelly","notes":"","teamId":"f6320df7-de52-4639-aaf7-2e52529b68a2","teamName":"Lancaster Stormers","stats":{"SB":6,"CS":2,"PO":1,"POA":4,"RATES":{"SB_PCT":0.75}}},{"playerId":"131ac166-0dcb-4652-9f18-8d675c7ee752","firstName":"Jackson","lastName":"Ross","notes":"https://lh3.googleusercontent.com/d/1F7pAqdjNScJ6EXy5lh7JdyzDWxgLqbPL","teamId":"632e348f-8786-4058-9eb3-a658185138b9","teamName":"York Revolution","stats":{"SB":5,"CS":1,"PO":1,"POA":13,"RATES":{"SB_PCT":0.8333333333333334}}},{"playerId":"13bd69b6-c908-46dc-a19c-0113ec42c70f","firstName":"Jorge","lastName":"Bonifacio","notes":"","teamId":"92cc9019-e388-4624-8e97-72aec9caba35","teamName":"Long Island Ducks","stats":{"SB":5,"CS":0,"PO":1,"POA":5,"RATES":{"SB_PCT":1.0}}},{"playerId":"15c42ba8-ae7d-4bf9-927a-9e1edb56d60b","firstName":"Carlos","lastName":"De La Cruz","notes":"","teamId":"ea582d9f-8060-4115-8f6b-ab9e10206bec","teamName":"Charleston Dirty Birds","stats":{"SB":5,"CS":1,"PO":0,"POA":10,"RATES":{"SB_PCT":0.8333333333333334}}},{"playerId":"32bbd941-c65e-4126-8248-e86ecc1bbb05","firstName":"Jackson","lastName":"Loftin","notes":"","teamId":"65183c24-fde3-437e-9c9b-0ad1427911b3","teamName":"Southern Maryland Blue Crabs","stats":{"SB":5,"CS":0,"PO":0,"POA":9,"RATES":{"SB_PCT":1.0}}},{"playerId":"3a43e69e-1375-4b15-a312-b05e8369bcbf","firstName":"Mike","lastName":"Rosario","notes":"https://lh3.googleusercontent.com/d/148h9_ETNHpH3u8Mw5T4L6OBXcHuExhnk","teamId":"632e348f-8786-4058-9eb3-a658185138b9","teamName":"York Revolution","stats":{"SB":5,"CS":4,"PO":0,"POA":10,"RATES":{"SB_PCT":0.5555555555555556}}},{"playerId":"4dcd731d-6815-4f6d-afbf-2c04a036dfbc","firstName":"Devonte","lastName":"Brown","notes":"https://lh3.googleusercontent.com/d/1poFpx1YLAqunPdUPstXIwzR1X9tJsILG","teamId":"632e348f-8786-4058-9eb3-a658185138b9","teamName":"York Revolution","stats":{"SB":5,"CS":0,"PO":0,"POA":9,"RATES":{"SB_PCT":1.0}}},{"playerId":"6cc5a113-80fe-4b7e-bd6d-9d469102d3cd","firstName":"Joe","lastName":"DeLuca","notes":"","teamId":"f6320df7-de52-4639-aaf7-2e52529b68a2","teamName":"Lancaster Stormers","stats":{"SB":5,"CS":0,"PO":1,"POA":2,"RATES":{"SB_PCT":1.0}}},{"playerId":"77cf81c5-bc5b-4d79-943d-991436d832b7","firstName":"Robert","lastName":"Brooks","notes":"","teamId":"adc0e571-ee3c-4381-a788-61608402285b","teamName":"Hagerstown Flying Boxcars","stats":{"SB":5,"CS":0,"PO":0,"POA":7,"RATES":{"SB_PCT":1.0}}},{"playerId":"7f51783f-f29c-4551-b3a1-c28b4391795b","firstName":"Brian","lastName":"Rey","notes":"https://lh3.googleusercontent.com/d/1F8yrnqFTs5QnOY1_LRi5ZBDW4BR1iLRR","teamId":"632e348f-8786-4058-9eb3-a658185138b9","teamName":"York Revolution","stats":{"SB":5,"CS":4,"PO":0,"POA":6,"RATES":{"SB_PCT":0.5555555555555556}}},{"playerId":"aaf6b3d8-6c5b-415c-989a-8f4fcd55ec44","firstName":"Yassel","lastName":"Pino","notes":"","teamId":"ea582d9f-8060-4115-8f6b-ab9e10206bec","teamName":"Charleston Dirty Birds","stats":{"SB":5,"CS":3,"PO":1,"POA":11,"RATES":{"SB_PCT":0.625}}},{"playerId":"d0581621-99b6-411f-a461-01b6cc917f0c","firstName":"Alejandro","lastName":"De Aza","notes":"","teamId":"65183c24-fde3-437e-9c9b-0ad1427911b3","teamName":"Southern Maryland Blue Crabs","stats":{"SB":5,"CS":1,"PO":0,"POA":0,"RATES":{"SB_PCT":0.8333333333333334}}},{"playerId":"ddb2844b-3e8d-4693-afbf-0a9081be2a52","firstName":"Ethan","lastName":"Skender","notes":"","teamId":"97cfebe5-2a3f-482e-9afb-d03d8e06d3f8","teamName":"High Point Rockers","stats":{"SB":5,"CS":2,"PO":0,"POA":9,"RATES":{"SB_PCT":0.7142857142857143}}},{"playerId":"760abb0d-d0d8-4f98-881a-0156eaed929b","firstName":"Bryson","lastName":"Brigman","notes":"","teamId":"4f1038eb-7615-4b9e-ad59-9aebfa1c1bdb","teamName":"Gastonia Ghost Peppers","stats":{"SB":4,"CS":0,"PO":0,"POA":8,"RATES":{"SB_PCT":1.0}}},{"playerId":"da6b7251-9e88-4698-957d-48b1084d91e4","firstName":"Josh","lastName":"Palacios","notes":"","teamId":"5f287a09-a787-4f05-8dae-b3f23279ca74","teamName":"Staten Island Ferry Hawks","stats":{"SB":4,"CS":0,"PO":0,"POA":6,"RATES":{"SB_PCT":1.0}}},{"playerId":"002bbf03-ca9e-4c1a-80a1-c09d52149152","firstName":"Osvaldo","lastName":"Abreu","notes":"","teamId":"5f287a09-a787-4f05-8dae-b3f23279ca74","teamName":"Staten Island Ferry Hawks","stats":{"SB":3,"CS":0,"PO":0,"POA":2,"RATES":{"SB_PCT":1.0}}},{"playerId":"1a6e097a-e329-4f23-9b7e-46fe78167be1","firstName":"Ryan","lastName":"McCarthy","notes":"","teamId":"97cfebe5-2a3f-482e-9afb-d03d8e06d3f8","teamName":"High Point Rockers","stats":{"SB":3,"CS":1,"PO":1,"POA":6,"RATES":{"SB_PCT":0.75}}},{"playerId":"70741d40-5e6c-467d-a0af-d7651c890f49","firstName":"Jace","lastName":"Rinehart","notes":"","teamId":"4f1038eb-7615-4b9e-ad59-9aebfa1c1bdb","teamName":"Gastonia Ghost Peppers","stats":{"SB":3,"CS":0,"PO":0,"POA":2,"RATES":{"SB_PCT":1.0}}},{"playerId":"a72a85c4-0e00-4560-932a-c4f64d285d23","firstName":"Gavin","lastName":"Collins","notes":"","teamId":"92cc9019-e388-4624-8e97-72aec9caba35","teamName":"Long Island Ducks","stats":{"SB":3,"CS":1,"PO":0,"POA":6,"RATES":{"SB_PCT":0.75}}},{"playerId":"e701243c-9682-4f7a-a992-8318c08bc918","firstName":"Grant","lastName":"Lavigne","notes":"","teamId":"4f1038eb-7615-4b9e-ad59-9aebfa1c1bdb","teamName":"Gastonia Ghost Peppers","stats":{"SB":3,"CS":0,"PO":0,"POA":1,"RATES":{"SB_PCT":1.0}}},{"playerId":"1a391a27-79b9-47f4-bfc5-91d350308379","firstName":"Andy","lastName":"Martin","notes":"","teamId":"adc0e571-ee3c-4381-a788-61608402285b","teamName":"Hagerstown Flying Boxcars","stats":{"SB":2,"CS":0,"PO":0,"POA":2,"RATES":{"SB_PCT":1.0}}},{"playerId":"1ab4b8b3-1574-41a5-b99f-e2569c4dd459","firstName":"Evan","lastName":"Ulrich","notes":"","teamId":"f6320df7-de52-4639-aaf7-2e52529b68a2","teamName":"Lancaster Stormers","stats":{"SB":2,"CS":0,"PO":0,"POA":5,"RATES":{"SB_PCT":1.0}}},{"playerId":"20a774c0-22c8-4820-864d-2b13151ad5af","firstName":"Jordan","lastName":"Peyton","notes":"","teamId":"adc0e571-ee3c-4381-a788-61608402285b","teamName":"Hagerstown Flying Boxcars","stats":{"SB":2,"CS":1,"PO":1,"POA":13,"RATES":{"SB_PCT":0.6666666666666666}}},{"playerId":"2ad7a7cc-c4ed-4200-8bb2-1dce303dd851","firstName":"Joseph","lastName":"Carpenter","notes":"","teamId":"f6320df7-de52-4639-aaf7-2e52529b68a2","teamName":"Lancaster Stormers","stats":{"SB":2,"CS":0,"PO":0,"POA":7,"RATES":{"SB_PCT":1.0}}},{"playerId":"3690e89f-2d5a-4c84-ade5-5624f9ce2c0f","firstName":"Jalen","lastName":"Battles","notes":"","teamId":"f6320df7-de52-4639-aaf7-2e52529b68a2","teamName":"Lancaster Stormers","stats":{"SB":2,"CS":1,"PO":0,"POA":10,"RATES":{"SB_PCT":0.6666666666666666}}},{"playerId":"5116b061-4e56-4a96-ab34-e383c8ceb6b8","firstName":"Blake ","lastName":"Rutherford","notes":"","teamId":"5f287a09-a787-4f05-8dae-b3f23279ca74","teamName":"Staten Island Ferry Hawks","stats":{"SB":2,"CS":0,"PO":0,"POA":2,"RATES":{"SB_PCT":1.0}}},{"playerId":"6ba7c015-a798-4a5f-92b3-3b1924dbcd6a","firstName":"Nick","lastName":"Dunn","notes":"https://lh3.googleusercontent.com/d/1GJzFAr5OdAA8NfPScrrDGW3RjtyDMiME","teamId":"632e348f-8786-4058-9eb3-a658185138b9","teamName":"York Revolution","stats":{"SB":2,"CS":3,"PO":0,"POA":13,"RATES":{"SB_PCT":0.4}}},{"playerId":"8c4f7429-839e-425c-80ed-25724063be8c","firstName":"Ronnie ","lastName":"Dawson","notes":"","teamId":"26f43f84-58cd-4541-91b4-6c0ca0af7237","teamName":"Lexington Legends","stats":{"SB":2,"CS":0,"PO":2,"POA":6,"RATES":{"SB_PCT":1.0}}},{"playerId":"b832dddc-3fb7-440d-af11-6c7a5e7f5eb1","firstName":"Nick","lastName":"Senzel","notes":"","teamId":"26f43f84-58cd-4541-91b4-6c0ca0af7237","teamName":"Lexington Legends","stats":{"SB":2,"CS":0,"PO":0,"POA":0,"RATES":{"SB_PCT":1.0}}},{"playerId":"c24ca48e-0478-471d-a195-643518789a05","firstName":"Darick","lastName":"Hall","notes":"","teamId":"adc0e571-ee3c-4381-a788-61608402285b","teamName":"Hagerstown Flying Boxcars","stats":{"SB":2,"CS":1,"PO":0,"POA":2,"RATES":{"SB_PCT":0.6666666666666666}}},{"playerId":"caaa738f-8333-429c-b43a-f0ae4bc51a48","firstName":"Noah","lastName":"Smith","notes":"","teamId":"adc0e571-ee3c-4381-a788-61608402285b","teamName":"Hagerstown Flying Boxcars","stats":{"SB":2,"CS":0,"PO":0,"POA":4,"RATES":{"SB_PCT":1.0}}},{"playerId":"e0df9e2f-9968-421a-8381-fed44280dc69","firstName":"Eddie","lastName":"Leon","notes":"","teamId":"4f1038eb-7615-4b9e-ad59-9aebfa1c1bdb","teamName":"Gastonia Ghost Peppers","stats":{"SB":2,"CS":1,"PO":1,"POA":3,"RATES":{"SB_PCT":0.6666666666666666}}},{"playerId":"f92878b3-9671-46f0-9097-649dd64bb69b","firstName":"Jake","lastName":"Thompson","notes":"","teamId":"f6320df7-de52-4639-aaf7-2e52529b68a2","teamName":"Lancaster Stormers","stats":{"SB":2,"CS":0,"PO":0,"POA":4,"RATES":{"SB_PCT":1.0}}},{"playerId":"039a7291-e975-4feb-b286-dc5958cea9f4","firstName":"Jackson","lastName":"Feltner","notes":"","teamId":"26f43f84-58cd-4541-91b4-6c0ca0af7237","teamName":"Lexington Legends","stats":{"SB":1,"CS":0,"PO":2,"POA":4,"RATES":{"SB_PCT":1.0}}},{"playerId":"0e259320-2c74-40a5-8159-94b932a561bb","firstName":"Brandon","lastName":"Wagner","notes":"","teamId":"5f287a09-a787-4f05-8dae-b3f23279ca74","teamName":"Staten Island Ferry Hawks","stats":{"SB":1,"CS":0,"PO":0,"POA":5,"RATES":{"SB_PCT":1.0}}},{"playerId":"0f44bfca-531b-487b-bd2b-d21c56ec0583","firstName":"Chandler","lastName":"Seagle","notes":"","teamId":"4f1038eb-7615-4b9e-ad59-9aebfa1c1bdb","teamName":"Gastonia Ghost Peppers","stats":{"SB":1,"CS":0,"PO":1,"POA":4,"RATES":{"SB_PCT":1.0}}},{"playerId":"1d416c01-28d9-4c30-bf42-e0b78e94b1b3","firstName":"Juan","lastName":"Gonzalez","notes":"","teamId":"26f43f84-58cd-4541-91b4-6c0ca0af7237","teamName":"Lexington Legends","stats":{"SB":1,"CS":0,"PO":0,"POA":0,"RATES":{"SB_PCT":1.0}}},{"playerId":"1fdaadc9-8040-4b27-80e6-879b62543134","firstName":"Tyler","lastName":"Dearden","notes":"","teamId":"adc0e571-ee3c-4381-a788-61608402285b","teamName":"Hagerstown Flying Boxcars","stats":{"SB":1,"CS":0,"PO":0,"POA":10,"RATES":{"SB_PCT":1.0}}},{"playerId":"255101f3-46df-4787-88a8-cb3630bac94b","firstName":"Nathan ","lastName":"Martorella","notes":"","teamId":"f6320df7-de52-4639-aaf7-2e52529b68a2","teamName":"Lancaster Stormers","stats":{"SB":1,"CS":0,"PO":0,"POA":0,"RATES":{"SB_PCT":1.0}}},{"playerId":"2be3bb8a-2a83-4e2a-b7bd-6e4d17b23a43","firstName":"Trayce","lastName":"Thompson","notes":"","teamId":"26f43f84-58cd-4541-91b4-6c0ca0af7237","teamName":"Lexington Legends","stats":{"SB":1,"CS":0,"PO":0,"POA":0,"RATES":{"SB_PCT":1.0}}},{"playerId":"38e2559e-e9a1-47e4-bcc2-b11c1ae1bbc6","firstName":"Jacob","lastName":"Teter","notes":"https://lh3.googleusercontent.com/d/1W30z26ccl4tLOfDTvZIPqM4Fcrbut6eh","teamId":"632e348f-8786-4058-9eb3-a658185138b9","teamName":"York Revolution","stats":{"SB":1,"CS":1,"PO":1,"POA":6,"RATES":{"SB_PCT":0.5}}},{"playerId":"64453f6e-ddad-4f59-86b7-966a8dc1311d","firstName":"Ronaldo","lastName":"Hernandez","notes":"","teamId":"92cc9019-e388-4624-8e97-72aec9caba35","teamName":"Long Island Ducks","stats":{"SB":1,"CS":1,"PO":1,"POA":3,"RATES":{"SB_PCT":0.5}}},{"playerId":"c3a5cec4-079f-43c9-bab2-13522f9ce079","firstName":"Ian ","lastName":"Yetsko","notes":"","teamId":"5f287a09-a787-4f05-8dae-b3f23279ca74","teamName":"Staten Island Ferry Hawks","stats":{"SB":1,"CS":2,"PO":0,"POA":1,"RATES":{"SB_PCT":0.3333333333333333}}},{"playerId":"c8423838-ffa0-41e7-bcdf-8086c3728200","firstName":"Nick","lastName":"Decker","notes":"","teamId":"5f287a09-a787-4f05-8dae-b3f23279ca74","teamName":"Staten Island Ferry Hawks","stats":{"SB":1,"CS":1,"PO":0,"POA":2,"RATES":{"SB_PCT":0.5}}},{"playerId":"cb2648b5-3ad6-48d8-a3b6-9ca741c02961","firstName":"Anthony","lastName":"Garcia","notes":"","teamId":"92cc9019-e388-4624-8e97-72aec9caba35","teamName":"Long Island Ducks","stats":{"SB":1,"CS":0,"PO":0,"POA":0,"RATES":{"SB_PCT":1.0}}},{"playerId":"cddf7a12-fcfe-4a9a-a0e9-e37289b61fbc","firstName":"Henderson ","lastName":"Perez","notes":"","teamId":"5f287a09-a787-4f05-8dae-b3f23279ca74","teamName":"Staten Island Ferry Hawks","stats":{"SB":1,"CS":0,"PO":0,"POA":0,"RATES":{"SB_PCT":1.0}}},{"playerId":"f15f0f3c-5eb3-4873-a056-29e1964df316","firstName":"Carlos","lastName":"Amezquita","notes":"","teamId":"5f287a09-a787-4f05-8dae-b3f23279ca74","teamName":"Staten Island Ferry Hawks","stats":{"SB":1,"CS":0,"PO":0,"POA":0,"RATES":{"SB_PCT":1.0}}},{"playerId":"02ab7d02-1ed4-4bad-bad1-aa81d1ff534b","firstName":"Justin","lastName":"Jarvis","notes":"","teamId":"97cfebe5-2a3f-482e-9afb-d03d8e06d3f8","teamName":"High Point Rockers","stats":{"SB":0,"CS":0,"PO":0,"POA":0,"RATES":{"SB_PCT":0.0}}},{"playerId":"04c63a34-4e6f-415d-a038-40f1f1a9d0c7","firstName":"Matt","lastName":"Mikulski","notes":"","teamId":"632e348f-8786-4058-9eb3-a658185138b9","teamName":"York Revolution","stats":{"SB":0,"CS":0,"PO":0,"POA":0,"RATES":{"SB_PCT":0.0}}},{"playerId":"068a455d-98bd-4444-82ac-366170cab199","firstName":"Aaron","lastName":"Holiday","notes":"","teamId":"632e348f-8786-4058-9eb3-a658185138b9","teamName":"York Revolution","stats":{"SB":0,"CS":0,"PO":0,"POA":0,"RATES":{"SB_PCT":0.0}}},{"playerId":"07a1a25d-3d53-4867-8f71-386870e64d5f","firstName":"Mariel ","lastName":"Checo","notes":"","teamId":"5f287a09-a787-4f05-8dae-b3f23279ca74","teamName":"Staten Island Ferry Hawks","stats":{"SB":0,"CS":0,"PO":0,"POA":0,"RATES":{"SB_PCT":0.0}}},{"playerId":"08378424-ca76-4c1e-aaa5-e44df7dc542e","firstName":"Joely","lastName":"Rodriguez","notes":"","teamId":"632e348f-8786-4058-9eb3-a658185138b9","teamName":"York Revolution","stats":{"SB":0,"CS":0,"PO":0,"POA":0,"RATES":{"SB_PCT":0.0}}},{"playerId":"0a9c6a60-100e-4065-b053-619caf41c498","firstName":"McKinley","lastName":"Moore","notes":"","teamId":"4f1038eb-7615-4b9e-ad59-9aebfa1c1bdb","teamName":"Gastonia Ghost Peppers","stats":{"SB":0,"CS":0,"PO":0,"POA":0,"RATES":{"SB_PCT":0.0}}}],"page":0,"size":100,"totalItems":279,"totalPages":3}